0,0,0,10
204,0,204,10
231,0,231,10
435,0,435,10
471,0,471,10
675,0,675,10
702,0,702,10
906,0,906,10
933,0,933,10
969,0,969,10
1137,0,1137,10
1173,0,1173,10
1200,0,1200,10
0,20,0,30
120,20,120,30
155,20,155,30
351,20,351,30
386,20,386,30
506,20,506,30
583,20,583,30
738,20,738,30
814,20,814,30
893,20,893,30
969,20,969,30
1124,20,1124,30
1200,20,1200,30
